Untitled
…
3.3

education2

## # A tibble: 3,060 x 5
##    State   Sex   `Age Group`  major                                  amount
##    <chr>   <chr> <chr>        <chr>                                   <dbl>
##  1 Alabama Total 25 and older Science and Engineering                263555
##  2 Alabama Total 25 and older Science and Engineering Related Fields  98445
##  3 Alabama Total 25 and older Business                               210147
##  4 Alabama Total 25 and older Education                              141071
##  5 Alabama Total 25 and older Arts, Humanities and Others            172139
##  6 Alabama Total 25 to 39     Science and Engineering                 90736
##  7 Alabama Total 25 to 39     Science and Engineering Related Fields  32378
##  8 Alabama Total 25 to 39     Business                                58515
##  9 Alabama Total 25 to 39     Education                               29342
## 10 Alabama Total 25 to 39     Arts, Humanities and Others             57953
## # ... with 3,050 more rows
…
